<svg width="18" height="22" viewBox="0 0 18 22" fill="none" xmlns="http://www.w3.org/2000/svg">
<path d="M17.4841 6.27576L11.1564 0.240116C10.9956 0.0865618 10.7774 0.000196459 10.55 0H7.72367C6.88917 0 6.08875 0.316222 5.49864 0.879108C4.90851 1.44198 4.57699 2.20541 4.57699 3.00145V4.36575H3.14668C2.31212 4.36575 1.51176 4.68197 0.921646 5.24485C0.331523 5.80773 0 6.57116 0 7.36719V18.2816C0 19.0775 0.331523 19.841 0.921646 20.4039C1.51176 20.9668 2.31212 21.283 3.14668 21.283H11.1564C11.9909 21.283 12.7913 20.9668 13.3814 20.4039C13.9716 19.841 14.3031 19.0775 14.3031 18.2816V16.9173H14.5892C15.4237 16.9173 16.2241 16.6011 16.8141 16.0381C17.4044 15.4753 17.7358 14.7118 17.7358 13.9158V6.82148C17.7268 6.61585 17.637 6.42102 17.4841 6.27576ZM11.4425 2.79408L14.8066 6.0029H11.4425V2.79408ZM12.5867 18.2816C12.5867 18.6434 12.436 18.9904 12.1678 19.2463C11.8996 19.5021 11.5357 19.6459 11.1564 19.6459H3.14668C2.76734 19.6459 2.40354 19.5021 2.1353 19.2463C1.86707 18.9904 1.71637 18.6434 1.71637 18.2816V7.36719C1.71637 7.00536 1.86707 6.65835 2.1353 6.4025C2.40354 6.14664 2.76734 6.0029 3.14668 6.0029H4.57699V13.9158C4.57699 14.7118 4.90851 15.4753 5.49864 16.0381C6.08875 16.6011 6.88917 16.9173 7.72367 16.9173H12.5867V18.2816ZM14.5892 15.2801H7.72367C7.34435 15.2801 6.98048 15.1364 6.71227 14.8805C6.44406 14.6247 6.29336 14.2776 6.29336 13.9158V3.00145C6.29336 2.63962 6.44406 2.29261 6.71227 2.03675C6.98048 1.7809 7.34435 1.63715 7.72367 1.63715H9.7261V6.82148C9.72908 7.0377 9.82039 7.24427 9.9807 7.39718C10.141 7.55008 10.3576 7.63723 10.5843 7.64005H16.0195V13.9158C16.0195 14.2776 15.8688 14.6247 15.6006 14.8805C15.3323 15.1364 14.9685 15.2801 14.5892 15.2801Z" fill="black"/>
</svg>
