<svg width="21" height="23" viewBox="0 0 21 23" fill="none" xmlns="http://www.w3.org/2000/svg">
<path d="M8.54547 10.4444V16.9476" stroke="black" stroke-width="1.77358" stroke-linecap="round" stroke-linejoin="round"/>
<path d="M13.1273 10.4444V16.9476" stroke="black" stroke-width="1.77358" stroke-linecap="round" stroke-linejoin="round"/>
<path d="M1.67285 6.10902H20" stroke="black" stroke-width="1.77358" stroke-linecap="round" stroke-linejoin="round"/>
<path d="M3.96362 6.10902H10.8363H17.709V18.0314C17.709 19.8273 16.1705 21.283 14.2726 21.283H7.39996C5.50213 21.283 3.96362 19.8273 3.96362 18.0314V6.10902Z" stroke="black" stroke-width="1.77358" stroke-linecap="round" stroke-linejoin="round"/>
<path d="M7.40009 3.9413C7.40009 2.74411 8.42575 1.77359 9.69098 1.77359H11.9819C13.2471 1.77359 14.2728 2.74411 14.2728 3.9413V6.10901H7.40009V3.9413Z" stroke="black" stroke-width="1.77358" stroke-linecap="round" stroke-linejoin="round"/>
</svg>
