<svg width="28" height="23" viewBox="0 0 28 23" fill="none" xmlns="http://www.w3.org/2000/svg">
<path fill-rule="evenodd" clip-rule="evenodd" d="M0 1.27643C0 0.571481 0.468767 0 1.04701 0H26.1752C26.7534 0 27.2222 0.571481 27.2222 1.27643C27.2222 1.98137 26.7534 2.55285 26.1752 2.55285H1.04701C0.468767 2.55285 0 1.98137 0 1.27643Z" fill="black"/>
<path fill-rule="evenodd" clip-rule="evenodd" d="M8.3761 11.4878C8.3761 10.7829 8.84487 10.2114 9.42311 10.2114H26.1752C26.7535 10.2114 27.2223 10.7829 27.2223 11.4878C27.2223 12.1927 26.7535 12.7642 26.1752 12.7642H9.42311C8.84487 12.7642 8.3761 12.1927 8.3761 11.4878Z" fill="black"/>
<path fill-rule="evenodd" clip-rule="evenodd" d="M0 21.6992C0 20.9943 0.468767 20.4228 1.04701 20.4228H26.1752C26.7534 20.4228 27.2222 20.9943 27.2222 21.6992C27.2222 22.4041 26.7534 22.9756 26.1752 22.9756H1.04701C0.468767 22.9756 0 22.4041 0 21.6992Z" fill="black"/>
</svg>
