<svg width="20" height="23" viewBox="0 0 20 23" fill="none" xmlns="http://www.w3.org/2000/svg">
<path d="M19.2112 17.3244C19.114 17.3244 16.9314 16.8723 16.9314 9.47612C16.9314 4.25232 14.3166 1 9.9946 1C5.67261 1 3.05781 4.25232 3.05781 9.47612C3.05781 17.0105 0.799568 17.3244 0.810373 17.3244C0.595451 17.3244 0.389325 17.4236 0.237353 17.6003C0.0853809 17.7768 0 18.0164 0 18.2662C0 18.5159 0.0853809 18.7555 0.237353 18.9321C0.389325 19.1088 0.595451 19.208 0.810373 19.208H6.02917C6.20955 20.2762 6.70365 21.2385 7.42697 21.9301C8.1503 22.6218 9.05791 23 9.9946 23C10.9313 23 11.8389 22.6218 12.5622 21.9301C13.2856 21.2385 13.7797 20.2762 13.96 19.208H19.1896C19.4045 19.208 19.6107 19.1088 19.7626 18.9321C19.9146 18.7555 20 18.5159 20 18.2662C20 18.0164 19.9146 17.7768 19.7626 17.6003C19.6107 17.4236 19.4045 17.3244 19.1896 17.3244H19.2112ZM9.9946 21.0916C9.49357 21.0904 9.00519 20.9087 8.59687 20.5713C8.18844 20.2339 7.88028 19.7576 7.71475 19.208H12.2744C12.1089 19.7576 11.8008 20.2339 11.3923 20.5713C10.984 20.9087 10.4956 21.0904 9.9946 21.0916ZM3.2523 17.3244C4.03025 15.9556 4.67855 13.5572 4.67855 9.47612C4.67855 5.39503 6.62345 2.88358 9.9946 2.88358C13.3657 2.88358 15.3106 5.28201 15.3106 9.47612C15.3106 13.6702 15.9589 15.9556 16.7369 17.3244H3.2523Z" fill="black"/>
<circle cx="15.5" cy="3.5" r="3.5" fill="#FF2929"/>
</svg>
