<svg width="20" height="20" viewBox="0 0 20 20" fill="none" xmlns="http://www.w3.org/2000/svg">
<path d="M18.868 9.98296H11.103" stroke="#030303" stroke-width="1.87192" stroke-linecap="round" stroke-linejoin="round"/>
<path d="M15.9561 7.07107L18.7836 9.89851C18.8301 9.9451 18.8301 10.0208 18.7836 10.0674L15.9561 12.8948" stroke="#030303" stroke-width="1.87192" stroke-linecap="round" stroke-linejoin="round"/>
<path d="M14.0149 16.7773V17.2627C14.0149 18.0668 13.3631 18.7186 12.559 18.7186H3.33804C2.26592 18.7186 1.39679 17.8495 1.39679 16.7773V3.18856C1.39679 2.11641 2.26592 1.24731 3.33804 1.24731H12.559C13.3631 1.24731 14.0149 1.89918 14.0149 2.70325V3.18856" stroke="#030303" stroke-width="1.87192" stroke-linecap="round" stroke-linejoin="round"/>
</svg>
