<svg width="20" height="20" viewBox="0 0 20 20" fill="none" xmlns="http://www.w3.org/2000/svg">
<path d="M12.019 -0.000610352C12.1676 -0.000605668 12.3124 0.0465675 12.4325 0.134115C12.5526 0.221663 12.6418 0.345068 12.6873 0.486558L13.4594 2.88589C13.7838 3.04454 14.094 3.22284 14.3903 3.4236L16.8556 2.89291C17.0009 2.86188 17.1524 2.87778 17.2881 2.93834C17.4239 2.99889 17.5369 3.10097 17.6109 3.22986L19.5568 6.59792C19.6311 6.72674 19.6625 6.87583 19.6466 7.02369C19.6308 7.17155 19.5683 7.31054 19.4683 7.42063L17.7766 9.28787C17.8012 9.64592 17.8012 10.0052 17.7766 10.3633L19.4683 12.2333C19.5683 12.3434 19.6308 12.4824 19.6466 12.6303C19.6625 12.7781 19.6311 12.9272 19.5568 13.0561L17.6109 16.4255C17.5367 16.5542 17.4236 16.6559 17.2879 16.7162C17.1521 16.7765 17.0008 16.7922 16.8556 16.7611L14.3903 16.2304C14.0954 16.4297 13.7838 16.6094 13.4609 16.7681L12.6873 19.1674C12.6418 19.3089 12.5526 19.4323 12.4325 19.5199C12.3124 19.6074 12.1676 19.6546 12.019 19.6546H8.12727C7.97866 19.6546 7.83387 19.6074 7.71378 19.5199C7.59368 19.4323 7.50447 19.3089 7.459 19.1674L6.68823 16.7695C6.36479 16.6113 6.05282 16.4307 5.75461 16.229L3.29069 16.7611C3.14534 16.7921 2.99388 16.7762 2.85814 16.7156C2.7224 16.6551 2.60939 16.553 2.53537 16.4241L0.589509 13.0561C0.515205 12.9272 0.483732 12.7781 0.499628 12.6303C0.515525 12.4824 0.577969 12.3434 0.677957 12.2333L2.36971 10.3633C2.3452 10.0062 2.3452 9.6478 2.36971 9.29068L0.677957 7.42063C0.577969 7.31054 0.515525 7.17155 0.499628 7.02369C0.483732 6.87583 0.515205 6.72674 0.589509 6.59792L2.53537 3.22846C2.60959 3.09982 2.72269 2.99803 2.85842 2.93774C2.99414 2.87745 3.14549 2.86175 3.29069 2.89291L5.75461 3.42501C6.05225 3.22424 6.36392 3.04314 6.68823 2.88449L7.4604 0.486558C7.50573 0.345524 7.59452 0.222446 7.71405 0.13494C7.83358 0.0474345 7.97773 -1.27392e-05 8.12587 -0.000610352H12.0176H12.019ZM11.5052 1.40333H8.64112L7.84368 3.8841L7.30597 4.14663C7.04163 4.27599 6.78645 4.42328 6.54222 4.58747L6.04523 4.92442L3.49567 4.37407L2.06365 6.85624L3.81156 8.79088L3.76944 9.38615C3.74927 9.67969 3.74927 9.97428 3.76944 10.2678L3.81156 10.8631L2.06084 12.7977L3.49427 15.2799L6.04382 14.731L6.54082 15.0665C6.78505 15.2307 7.04023 15.378 7.30456 15.5073L7.84227 15.7699L8.64112 18.2506H11.508L12.3082 15.7685L12.8445 15.5073C13.1086 15.3783 13.3633 15.231 13.6069 15.0665L14.1025 14.731L16.6534 15.2799L18.0854 12.7977L16.3361 10.8631L16.3782 10.2678C16.3985 9.97381 16.3985 9.67875 16.3782 9.38474L16.3361 8.78947L18.0868 6.85624L16.6534 4.37407L14.1025 4.92161L13.6069 4.58747C13.3633 4.42295 13.1086 4.27565 12.8445 4.14663L12.3082 3.8855L11.5066 1.40333H11.5052ZM10.0731 5.61516C11.1902 5.61516 12.2615 6.0589 13.0513 6.84877C13.8412 7.63864 14.285 8.70994 14.285 9.82698C14.285 10.944 13.8412 12.0153 13.0513 12.8052C12.2615 13.5951 11.1902 14.0388 10.0731 14.0388C8.95609 14.0388 7.8848 13.5951 7.09493 12.8052C6.30506 12.0153 5.86131 10.944 5.86131 9.82698C5.86131 8.70994 6.30506 7.63864 7.09493 6.84877C7.8848 6.0589 8.95609 5.61516 10.0731 5.61516ZM10.0731 7.0191C9.32844 7.0191 8.61424 7.31493 8.08766 7.84151C7.56108 8.36809 7.26525 9.08229 7.26525 9.82698C7.26525 10.5717 7.56108 11.2859 8.08766 11.8125C8.61424 12.339 9.32844 12.6349 10.0731 12.6349C10.8178 12.6349 11.532 12.339 12.0586 11.8125C12.5852 11.2859 12.881 10.5717 12.881 9.82698C12.881 9.08229 12.5852 8.36809 12.0586 7.84151C11.532 7.31493 10.8178 7.0191 10.0731 7.0191Z" fill="black"/>
</svg>
